{
    "code": "ACK",
    "data": {
        "currentIndex": 1,
        "endIndex": 2,
        "endIndexOnShow": 2,
        "first": 0,
        "indexCountOnShow": 7,
        "indexes": [],
        "items": [
            {
              "id": "20160101",
              "name": "张三",
              "mobile": "15267093582"
            },
            {
              "id": "20160102",
              "name": "李四",
              "mobile": "15267093583"
            },
            {
              "id": "20160103",
              "name": "王五",
              "mobile": "15267093584"
            }
        ],
        "last": 9,
        "nextIndex": 2,
        "pageCount": 2,
        "pageSize": 10,
        "previousIndex": 1,
        "start": 0,
        "startIndexOnShow": 1,
        "totalCount": 11
    },
    "msg": null
}